%YAML 1.1
%TAG !u! tag:unity3d.com,2011:
--- !u!74 &7400000
AnimationClip:
  m_ObjectHideFlags: 0
  m_CorrespondingSourceObject: {fileID: 0}
  m_PrefabInstance: {fileID: 0}
  m_PrefabAsset: {fileID: 0}
  m_Name: Destroy
  serializedVersion: 6
  m_Legacy: 0
  m_Compressed: 0
  m_UseHighQualityCurve: 1
  m_RotationCurves: []
  m_CompressedRotationCurves: []
  m_EulerCurves: []
  m_PositionCurves: []
  m_ScaleCurves: []
  m_FloatCurves: []
  m_PPtrCurves:
  - curve:
    - time: 0
      value: {fileID: -8092295105046505211, guid: 88bac2e2c562205f3b55acccc6410bd7,
        type: 3}
    - time: 0.016666668
      value: {fileID: -5243772346084840235, guid: 88bac2e2c562205f3b55acccc6410bd7,
        type: 3}
    - time: 0.033333335
      value: {fileID: -4009157606203222040, guid: 88bac2e2c562205f3b55acccc6410bd7,
        type: 3}
    - time: 0.05
      value: {fileID: 3730887761424324059, guid: 88bac2e2c562205f3b55acccc6410bd7,
        type: 3}
    - time: 0.06666667
      value: {fileID: -4927540249515241657, guid: 88bac2e2c562205f3b55acccc6410bd7,
        type: 3}
    - time: 0.083333336
      value: {fileID: 5684552838703836615, guid: 88bac2e2c562205f3b55acccc6410bd7,
        type: 3}
    - time: 0.1
      value: {fileID: -1000500801407918923, guid: 88bac2e2c562205f3b55acccc6410bd7,
        type: 3}
    - time: 0.11666667
      value: {fileID: -3556220708966662747, guid: 88bac2e2c562205f3b55acccc6410bd7,
        type: 3}
    - time: 0.13333334
      value: {fileID: 950242065716622878, guid: 88bac2e2c562205f3b55acccc6410bd7,
        type: 3}
    - time: 0.15
      value: {fileID: 1871906383385562927, guid: 88bac2e2c562205f3b55acccc6410bd7,
        type: 3}
    - time: 0.16666667
      value: {fileID: -5371098934410574880, guid: 88bac2e2c562205f3b55acccc6410bd7,
        type: 3}
    - time: 0.18333334
      value: {fileID: -1551774312519300948, guid: 88bac2e2c562205f3b55acccc6410bd7,
        type: 3}
    - time: 0.2
      value: {fileID: 8761117149865828687, guid: 88bac2e2c562205f3b55acccc6410bd7,
        type: 3}
    - time: 0.21666667
      value: {fileID: 2349602722129606322, guid: 88bac2e2c562205f3b55acccc6410bd7,
        type: 3}
    - time: 0.23333333
      value: {fileID: 7773491377804077996, guid: 88bac2e2c562205f3b55acccc6410bd7,
        type: 3}
    - time: 0.25
      value: {fileID: 1467323325375670837, guid: 88bac2e2c562205f3b55acccc6410bd7,
        type: 3}
    attribute: m_Sprite
    path: 
    classID: 212
    script: {fileID: 0}
  m_SampleRate: 60
  m_WrapMode: 0
  m_Bounds:
    m_Center: {x: 0, y: 0, z: 0}
    m_Extent: {x: 0, y: 0, z: 0}
  m_ClipBindingConstant:
    genericBindings:
    - serializedVersion: 2
      path: 0
      attribute: 0
      script: {fileID: 0}
      typeID: 212
      customType: 23
      isPPtrCurve: 1
    pptrCurveMapping:
    - {fileID: -8092295105046505211, guid: 88bac2e2c562205f3b55acccc6410bd7, type: 3}
    - {fileID: -5243772346084840235, guid: 88bac2e2c562205f3b55acccc6410bd7, type: 3}
    - {fileID: -4009157606203222040, guid: 88bac2e2c562205f3b55acccc6410bd7, type: 3}
    - {fileID: 3730887761424324059, guid: 88bac2e2c562205f3b55acccc6410bd7, type: 3}
    - {fileID: -4927540249515241657, guid: 88bac2e2c562205f3b55acccc6410bd7, type: 3}
    - {fileID: 5684552838703836615, guid: 88bac2e2c562205f3b55acccc6410bd7, type: 3}
    - {fileID: -1000500801407918923, guid: 88bac2e2c562205f3b55acccc6410bd7, type: 3}
    - {fileID: -3556220708966662747, guid: 88bac2e2c562205f3b55acccc6410bd7, type: 3}
    - {fileID: 950242065716622878, guid: 88bac2e2c562205f3b55acccc6410bd7, type: 3}
    - {fileID: 1871906383385562927, guid: 88bac2e2c562205f3b55acccc6410bd7, type: 3}
    - {fileID: -5371098934410574880, guid: 88bac2e2c562205f3b55acccc6410bd7, type: 3}
    - {fileID: -1551774312519300948, guid: 88bac2e2c562205f3b55acccc6410bd7, type: 3}
    - {fileID: 8761117149865828687, guid: 88bac2e2c562205f3b55acccc6410bd7, type: 3}
    - {fileID: 2349602722129606322, guid: 88bac2e2c562205f3b55acccc6410bd7, type: 3}
    - {fileID: 7773491377804077996, guid: 88bac2e2c562205f3b55acccc6410bd7, type: 3}
    - {fileID: 1467323325375670837, guid: 88bac2e2c562205f3b55acccc6410bd7, type: 3}
  m_AnimationClipSettings:
    serializedVersion: 2
    m_AdditiveReferencePoseClip: {fileID: 0}
    m_AdditiveReferencePoseTime: 0
    m_StartTime: 0
    m_StopTime: 0.26666668
    m_OrientationOffsetY: 0
    m_Level: 0
    m_CycleOffset: 0
    m_HasAdditiveReferencePose: 0
    m_LoopTime: 0
    m_LoopBlend: 0
    m_LoopBlendOrientation: 0
    m_LoopBlendPositionY: 0
    m_LoopBlendPositionXZ: 0
    m_KeepOriginalOrientation: 0
    m_KeepOriginalPositionY: 1
    m_KeepOriginalPositionXZ: 0
    m_HeightFromFeet: 0
    m_Mirror: 0
  m_EditorCurves: []
  m_EulerEditorCurves: []
  m_HasGenericRootTransform: 0
  m_HasMotionFloatCurves: 0
  m_Events: []
